…
``` r
# Set a random seed value so we can obtain the same "random" results
set.seed(631)

# Generate the 2000 bootstrap samples
boot_samps <- sim_dat %>% 
  bootstraps(times = 2000)

boot_samps
```

    ## # Bootstrap sampling 
    ## # A tibble: 2,000 × 2
    ##    splits          id           
    ##    <list>          <chr>        
    ##  1 <split [20/8]>  Bootstrap0001
    ##  2 <split [20/6]>  Bootstrap0002
    ##  3 <split [20/6]>  Bootstrap0003
    ##  4 <split [20/6]>  Bootstrap0004
    ##  5 <split [20/10]> Bootstrap0005
    ##  6 <split [20/10]> Bootstrap0006
    ##  7 <split [20/7]>  Bootstrap0007
    ##  8 <split [20/6]>  Bootstrap0008
    ##  9 <split [20/8]>  Bootstrap0009
    ## 10 <split [20/6]>  Bootstrap0010
    ## # … with 1,990 more rows
…
# Fit the model to each split and store the information
# Also, obtain the tidy model information
boot_models <- boot_samps %>% 
  mutate(
    model = map(splits, fit_mlr_boots),
    coef_info = map(model, tidy)
    )

boots_coefs <- boot_models %>% 
  unnest(coef_info)

boots_coefs
```

    ## # A tibble: 8,000 × 8
    ##    splits         id            model  term     estim…¹ std.e…² stati…³  p.value
    ##    <list>         <chr>         <list> <chr>      <dbl>   <dbl>   <dbl>    <dbl>
    ##  1 <split [20/8]> Bootstrap0001 <lm>   (Interc…   2.68   0.892    3.01  8.38e- 3
    ##  2 <split [20/8]> Bootstrap0001 <lm>   x1         0.464  0.132    3.50  2.93e- 3
    ##  3 <split [20/8]> Bootstrap0001 <lm>   x2        -0.522  0.0167 -31.2   9.40e-16
    ##  4 <split [20/8]> Bootstrap0001 <lm>   x3Yes      1.30   1.15     1.13  2.73e- 1
    ##  5 <split [20/6]> Bootstrap0002 <lm>   (Interc…   0.297  1.23     0.240 8.13e- 1
    ##  6 <split [20/6]> Bootstrap0002 <lm>   x1         0.320  0.126    2.54  2.17e- 2
    ##  7 <split [20/6]> Bootstrap0002 <lm>   x2        -0.492  0.0195 -25.3   2.52e-14
    ##  8 <split [20/6]> Bootstrap0002 <lm>   x3Yes      2.71   0.948    2.86  1.13e- 2
    ##  9 <split [20/6]> Bootstrap0003 <lm>   (Interc…   0.596  0.996    0.598 5.58e- 1
    ## 10 <split [20/6]> Bootstrap0003 <lm>   x1         0.264  0.133    1.98  6.49e- 2
    ## # … with 7,990 more rows, and abbreviated variable names ¹​estimate, ²​std.error,
    ## #   ³​statistic
…
